<?xml version="1.0" encoding="utf-8"?>
<!-- Generator: Adobe Illustrator 19.2.1, SVG Export Plug-In . SVG Version: 6.00 Build 0)  -->
<svg xmlns="http://www.w3.org/2000/svg" xmlns:xlink="http://www.w3.org/1999/xlink" version="1.1" id="Ebene_1" x="0px" y="0px" viewBox="0 0 84 74" style="enable-background:new 0 0 84 74;" xml:space="preserve" class="mdl-js">
<style type="text/css">
	.st0{fill:url(#SVGID_1_);}
	.st1{fill:url(#SVGID_2_);}
	.st2{fill:url(#SVGID_3_);}
</style>
<linearGradient id="SVGID_1_" gradientUnits="userSpaceOnUse" x1="82.8464" y1="73.25" x2="1.1723" y2="73.25" gradientTransform="matrix(1 0 0 1 0 -40)">
	<stop offset="0" style="stop-color:#f85233"/>
	<stop offset="1" style="stop-color:#F5E643"/>
</linearGradient>
<path class="st0" d="M63,55.5c-0.6,0-1-0.4-1-1v-2.2c0-4.2-0.2-6.2-4.9-7.3H57c-4.5-1-8.7-2-9.9-4.7c-0.6-1.3-0.4-2.8,0.5-4.5  c4.1-7.8,5-14.3,2.4-18.6c-1.7-2.7-4.7-4.2-8.2-4.2c-3.7,0-6.6,1.5-8.2,4.3C31,21.6,31.8,28.2,36,35.8c0.9,1.7,1.1,3.2,0.5,4.5  C35.3,43,31.1,44,26.8,45h-0.4c-4.4,1-4.9,2.8-4.9,7.3v2.2c0,0.6-0.4,1-1,1s-1-0.4-1-1v-2.2c0-4.7,0.4-7.8,6.4-9.2l0.4-0.1  c3.7-0.9,7.6-1.8,8.4-3.6c0.3-0.7,0.2-1.6-0.5-2.7c-4.5-8.3-5.4-15.6-2.4-20.5c2-3.3,5.6-5.2,9.9-5.2s7.9,1.9,9.9,5.2  c2.9,4.9,2.1,12.1-2.4,20.5c-0.6,1.1-0.7,2-0.4,2.7c0.8,1.8,4.8,2.7,8.6,3.6l0.2,0.1c6,1.4,6.4,4.6,6.4,9.2v2.2  C64,55.1,63.5,55.5,63,55.5z"/>
<linearGradient id="SVGID_2_" gradientUnits="userSpaceOnUse" x1="82.8464" y1="78.6" x2="1.1723" y2="78.6" gradientTransform="matrix(1 0 0 1 0 -40)">
	<stop offset="0" style="stop-color:#f85233"/>
	<stop offset="1" style="stop-color:#F5E643"/>
</linearGradient>
<path class="st1" d="M2.3,55.5c-0.6,0-1-0.4-1-1v-1.6c0-3.5,0.4-6.1,5-7.2h0.2c2.7-0.6,5.7-1.3,6.2-2.5c0.1-0.2,0.3-0.7-0.3-1.8  C9,35,8.4,29.5,10.6,25.7c1.5-2.5,4.3-4,7.6-4c5.4,0,9,3.7,9,9.2c0,1.7-0.3,3.4-0.9,5.2c-0.2,0.5-0.7,0.8-1.3,0.6  c-0.5-0.2-0.8-0.7-0.6-1.3c0.5-1.5,0.8-3,0.8-4.5c0-4.5-2.7-7.2-7-7.2c-2.6,0-4.7,1.1-5.9,3c-1.9,3.1-1.2,8,1.8,13.7  c0.7,1.4,0.8,2.6,0.4,3.6c-1,2.1-4.2,2.9-7.6,3.7H6.7c-3.1,0.7-3.4,1.8-3.4,5.2v1.6C3.3,55.1,2.8,55.5,2.3,55.5z"/>
<linearGradient id="SVGID_3_" gradientUnits="userSpaceOnUse" x1="82.8464" y1="78.6" x2="1.1723" y2="78.6" gradientTransform="matrix(1 0 0 1 0 -40)">
	<stop offset="0" style="stop-color:#f85233"/>
	<stop offset="1" style="stop-color:#F5E643"/>
</linearGradient>
<path class="st2" d="M81.8,55.5c-0.6,0-1-0.4-1-1v-1.6c0-3.3-0.3-4.5-3.5-5.2h-0.2c-3.4-0.8-6.6-1.5-7.6-3.7c-0.5-1-0.4-2.2,0.4-3.6  c3-5.7,3.7-10.6,1.8-13.7c-1.2-1.9-3.3-3-5.9-3c-4.3,0-7,2.8-7,7.2c0,1.5,0.3,3.1,0.8,4.6c0.2,0.5-0.1,1.1-0.6,1.3s-1.1-0.1-1.3-0.6  c-0.6-1.8-0.9-3.5-0.9-5.3c0-5.5,3.6-9.2,9-9.2c3.3,0,6.1,1.5,7.6,4c2.2,3.7,1.6,9.3-1.8,15.7c-0.6,1.2-0.4,1.7-0.3,1.8  c0.6,1.2,3.6,1.9,6.2,2.5h0.2c4.6,1.1,5,3.7,5,7.2v1.6C82.8,55.1,82.3,55.5,81.8,55.5z"/>
</svg>
