<?xml version="1.0" encoding="utf-8"?>
<!-- Generator: Adobe Illustrator 19.2.1, SVG Export Plug-In . SVG Version: 6.00 Build 0)  -->
<svg xmlns="http://www.w3.org/2000/svg" xmlns:xlink="http://www.w3.org/1999/xlink" version="1.1" id="Ebene_1" x="0px" y="0px" viewBox="0 0 84 74" style="enable-background:new 0 0 84 74;" xml:space="preserve" class="mdl-js">
<style type="text/css">
	.st0{fill:url(#SVGID_1_);}
	.st1{fill:url(#SVGID_2_);}
	.st2{fill:url(#SVGID_3_);}
	.st3{fill:url(#SVGID_4_);}
	.st4{fill:url(#SVGID_5_);}
	.st5{fill:url(#SVGID_6_);}
	.st6{fill:url(#SVGID_7_);}
	.st7{fill:url(#SVGID_8_);}
	.st8{fill:url(#SVGID_9_);}
	.st9{fill:url(#SVGID_10_);}
	.st10{fill:url(#SVGID_11_);}
	.st11{fill:url(#SVGID_12_);}
	.st12{fill:url(#SVGID_13_);}
	.st13{fill:url(#SVGID_14_);}
</style>
<linearGradient id="SVGID_1_" gradientUnits="userSpaceOnUse" x1="76.8814" y1="27.2661" x2="14.2111" y2="27.2661" gradientTransform="matrix(1 0 0 -1 0 64)">
	<stop offset="0" style="stop-color:#f85233"/>
	<stop offset="1" style="stop-color:#F5E643"/>
</linearGradient>
<path class="st0" d="M54.8,56.7h-19c-0.6,0-1-0.4-1-1V52c-5.3-3.5-8.6-9.6-8.6-16.1c0-5.3,2.1-10.2,6-13.9s8.9-5.5,14.2-5.2  c9.8,0.5,17.8,8.6,18.1,18.5c0.2,6.7-3.1,13-8.6,16.7v3.9C55.8,56.3,55.5,56.7,54.8,56.7z M36.9,54.7h17v-3.4c0-0.3,0.2-0.7,0.5-0.9  c5.2-3.2,8.4-9.1,8.2-15.2c-0.3-8.8-7.5-16.1-16.3-16.6c-4.8-0.2-9.3,1.4-12.7,4.7c-3.5,3.3-5.4,7.7-5.4,12.5c0,6,3.1,11.6,8.2,14.7  c0.3,0.2,0.5,0.5,0.5,0.9L36.9,54.7L36.9,54.7z"/>
<linearGradient id="SVGID_2_" gradientUnits="userSpaceOnUse" x1="76.8814" y1="15.4577" x2="14.2111" y2="15.4577" gradientTransform="matrix(1 0 0 -1 0 64)">
	<stop offset="0" style="stop-color:#f85233"/>
	<stop offset="1" style="stop-color:#F5E643"/>
</linearGradient>
<path class="st1" d="M41.9,56.7c-0.5,0-0.9-0.3-1-0.8l-2.6-14.3c-0.1-0.5,0.3-1.1,0.8-1.2c0.5-0.1,1.1,0.3,1.2,0.8l2.6,14.3  c0.1,0.5-0.3,1.1-0.8,1.2C42,56.7,42,56.7,41.9,56.7z"/>
<linearGradient id="SVGID_3_" gradientUnits="userSpaceOnUse" x1="76.8814" y1="15.4577" x2="14.2111" y2="15.4577" gradientTransform="matrix(1 0 0 -1 0 64)">
	<stop offset="0" style="stop-color:#f85233"/>
	<stop offset="1" style="stop-color:#F5E643"/>
</linearGradient>
<path class="st2" d="M48.8,56.7c-0.1,0-0.1,0-0.2,0c-0.5-0.1-0.9-0.6-0.8-1.2l2.5-14.3c0.1-0.5,0.6-0.9,1.2-0.8  c0.5,0.1,0.9,0.6,0.8,1.2l-2.6,14.3C49.7,56.4,49.3,56.7,48.8,56.7z"/>
<linearGradient id="SVGID_4_" gradientUnits="userSpaceOnUse" x1="76.8814" y1="25.9555" x2="14.2111" y2="25.9555" gradientTransform="matrix(1 0 0 -1 0 64)">
	<stop offset="0" style="stop-color:#f85233"/>
	<stop offset="1" style="stop-color:#F5E643"/>
</linearGradient>
<path class="st3" d="M48.3,39.8c-0.2,0-0.3,0-0.5-0.1l-2.5-1.4l-2.5,1.4c-0.3,0.2-0.6,0.2-0.9,0.1L38,38.1c-0.5-0.2-0.7-0.8-0.5-1.3  s0.8-0.7,1.3-0.5l3.5,1.5l2.5-1.4c0.3-0.2,0.7-0.2,1,0l2.5,1.4l3.5-1.5c0.5-0.2,1.1,0,1.3,0.5s0,1.1-0.5,1.3l-3.9,1.7  C48.6,39.8,48.5,39.8,48.3,39.8z"/>
<linearGradient id="SVGID_5_" gradientUnits="userSpaceOnUse" x1="76.8874" y1="5.7" x2="14.217" y2="5.7" gradientTransform="matrix(1 0 0 -1 0 64)">
	<stop offset="0" style="stop-color:#f85233"/>
	<stop offset="1" style="stop-color:#F5E643"/>
</linearGradient>
<path class="st4" d="M54.8,61.9h-19c-0.6,0-1-0.4-1-1v-5.2c0-0.6,0.4-1,1-1h19c0.6,0,1,0.4,1,1v5.2C55.8,61.5,55.5,61.9,54.8,61.9z   M36.9,59.9h17v-3.2h-17C36.8,56.7,36.8,59.9,36.9,59.9z"/>
<linearGradient id="SVGID_6_" gradientUnits="userSpaceOnUse" x1="76.8814" y1="0.5" x2="14.2111" y2="0.5" gradientTransform="matrix(1 0 0 -1 0 64)">
	<stop offset="0" style="stop-color:#f85233"/>
	<stop offset="1" style="stop-color:#F5E643"/>
</linearGradient>
<path class="st5" d="M53.2,67.1H37.6c-0.6,0-1-0.4-1-1v-5.2c0-0.6,0.4-1,1-1s1,0.4,1,1v4.2h13.6v-4.2c0-0.6,0.4-1,1-1s1,0.4,1,1v5.2  C54.2,66.7,53.7,67.1,53.2,67.1z"/>
<linearGradient id="SVGID_7_" gradientUnits="userSpaceOnUse" x1="76.8814" y1="-4.7" x2="14.2111" y2="-4.7" gradientTransform="matrix(1 0 0 -1 0 64)">
	<stop offset="0" style="stop-color:#f85233"/>
	<stop offset="1" style="stop-color:#F5E643"/>
</linearGradient>
<path class="st6" d="M51.3,72.3h-12c-0.6,0-1-0.4-1-1v-5.2c0-0.6,0.4-1,1-1h12c0.6,0,1,0.4,1,1v5.2C52.3,71.8,52,72.3,51.3,72.3z   M40.3,70.3h10v-3.2h-10V70.3z"/>
<linearGradient id="SVGID_8_" gradientUnits="userSpaceOnUse" x1="76.8814" y1="59" x2="14.2111" y2="59" gradientTransform="matrix(1 0 0 -1 0 64)">
	<stop offset="0" style="stop-color:#f85233"/>
	<stop offset="1" style="stop-color:#F5E643"/>
</linearGradient>
<path class="st7" d="M45.4,10c-0.6,0-1-0.4-1-1V1c0-0.6,0.4-1,1-1s1,0.4,1,1v8C46.3,9.6,45.8,10,45.4,10z"/>
<linearGradient id="SVGID_9_" gradientUnits="userSpaceOnUse" x1="76.8814" y1="53.6344" x2="14.2111" y2="53.6344" gradientTransform="matrix(1 0 0 -1 0 64)">
	<stop offset="0" style="stop-color:#f85233"/>
	<stop offset="1" style="stop-color:#F5E643"/>
</linearGradient>
<path class="st8" d="M60.1,14.7c-0.2,0-0.4-0.1-0.6-0.2c-0.5-0.3-0.6-0.9-0.3-1.4l4.6-6.6c0.3-0.5,0.9-0.6,1.4-0.3  c0.5,0.3,0.6,0.9,0.3,1.4L61,14.3C60.8,14.5,60.5,14.7,60.1,14.7z"/>
<linearGradient id="SVGID_10_" gradientUnits="userSpaceOnUse" x1="76.8814" y1="39.1813" x2="14.2111" y2="39.1813" gradientTransform="matrix(1 0 0 -1 0 64)">
	<stop offset="0" style="stop-color:#f85233"/>
	<stop offset="1" style="stop-color:#F5E643"/>
</linearGradient>
<path class="st9" d="M69.6,27c-0.4,0-0.8-0.3-0.9-0.7c-0.2-0.5,0.1-1.1,0.6-1.3l6.3-2.3c0.5-0.2,1.1,0.1,1.3,0.6s-0.1,1.1-0.6,1.3  L70,26.9C69.7,27,69.7,27,69.6,27z"/>
<linearGradient id="SVGID_11_" gradientUnits="userSpaceOnUse" x1="76.8814" y1="21.7096" x2="14.2111" y2="21.7096" gradientTransform="matrix(1 0 0 -1 0 64)">
	<stop offset="0" style="stop-color:#f85233"/>
	<stop offset="1" style="stop-color:#F5E643"/>
</linearGradient>
<path class="st10" d="M75.9,44c-0.1,0-0.2,0-0.3,0L70,42.5c-0.5-0.1-0.8-0.7-0.7-1.2c0.1-0.5,0.7-0.8,1.2-0.7l5.6,1.5  c0.5,0.1,0.8,0.7,0.7,1.2C76.7,43.7,76.2,44,75.9,44z"/>
<linearGradient id="SVGID_12_" gradientUnits="userSpaceOnUse" x1="76.8814" y1="53.5844" x2="14.2111" y2="53.5844" gradientTransform="matrix(1 0 0 -1 0 64)">
	<stop offset="0" style="stop-color:#f85233"/>
	<stop offset="1" style="stop-color:#F5E643"/>
</linearGradient>
<path class="st11" d="M30.5,14.7c-0.3,0-0.6-0.2-0.8-0.4l-4.4-6.6c-0.3-0.5-0.2-1.1,0.3-1.4s1.1-0.2,1.4,0.3l4.4,6.6  c0.3,0.5,0.2,1.1-0.3,1.4C30.9,14.6,30.7,14.7,30.5,14.7z"/>
<linearGradient id="SVGID_13_" gradientUnits="userSpaceOnUse" x1="76.8814" y1="39.1813" x2="14.2111" y2="39.1813" gradientTransform="matrix(1 0 0 -1 0 64)">
	<stop offset="0" style="stop-color:#f85233"/>
	<stop offset="1" style="stop-color:#F5E643"/>
</linearGradient>
<path class="st12" d="M21.1,27c-0.1,0-0.2,0-0.3-0.1l-6.3-2.3c-0.5-0.2-0.8-0.8-0.6-1.3c0.2-0.5,0.8-0.8,1.3-0.6l6.2,2.3  c0.5,0.2,0.8,0.8,0.6,1.3C21.9,26.7,21.5,27,21.1,27z"/>
<linearGradient id="SVGID_14_" gradientUnits="userSpaceOnUse" x1="76.8814" y1="21.7096" x2="14.2111" y2="21.7096" gradientTransform="matrix(1 0 0 -1 0 64)">
	<stop offset="0" style="stop-color:#f85233"/>
	<stop offset="1" style="stop-color:#F5E643"/>
</linearGradient>
<path class="st13" d="M14.8,44c-0.4,0-0.8-0.3-1-0.7c-0.1-0.5,0.2-1.1,0.7-1.2l5.6-1.5c0.5-0.1,1.1,0.2,1.2,0.7s-0.2,1.1-0.7,1.2  L15,44C15,43.9,14.9,44,14.8,44z"/>
</svg>
